…
`n()` is the count operator in dplyr (it works only within a `summarise()`, `mutate()` or `filter()`), and counts the rows by group level without taking any argument. Note that every time you use `summarise()`, your tibble drops one grouping level. For instance in the latter example, data are still grouped by country, and any further dplyr verb would apply groupwise unless we `ungroup()` first.

Because counting observations is a very common task, dplyr offers the wrapper `count`, which is equivalent to `group_by %>% summarise( n() )` except that it `ungroup()` after.

``` r
selfiesCasualties %>% 
  count(country, gender)
```

    ## # A tibble: 26 x 3
    ##    country   gender     n
    ##    <chr>     <fct>  <int>
    ##  1 Australia Male       1
    ##  2 Chile     Female     1
    ##  3 China     Female     1
    ##  4 China     Male       2
    ##  5 Hong Kong Male       1
    ##  6 India     Female     6
    ##  7 India     Male      38
    ##  8 Indonesia Male       2
    ##  9 Italy     Female     1
    ## 10 Mexico    Male       1
    ## # ... with 16 more rows
…
1.  What is the busiest route?

``` r
leftFlight$route <- paste(leftFlight$origin, leftFlight$dest)
leftFlight %>%  
  group_by(route) %>%
  summarise(tot = n()) %>%
  arrange(desc(tot))
```

    ## # A tibble: 224 x 2
    ##    route     tot
    ##    <chr>   <int>
    ##  1 JFK LAX 11262
    ##  2 LGA ATL 10263
    ##  3 LGA ORD  8857
    ##  4 JFK SFO  8204
    ##  5 LGA CLT  6168
    ##  6 EWR ORD  6100
    ##  7 JFK BOS  5898
    ##  8 LGA MIA  5781
    ##  9 JFK MCO  5464
    ## 10 EWR BOS  5327
    ## # ... with 214 more rows
…
